#
# CULTURE=de-DE
# SPECTRUM_TIME=2016-04-21_11:33:14
# DARK_INTENSITY=4,94065645841247E-324
# DARK_INTENSITY_SIGMA=0
# DARK_INTENSITY_TIME=2016-11-30_16:57:45
# WAVELENGTH_CORRECTION=1132,9;0;1261,8;0;1320,2;0;1534,6;0;1681,4;0;1757,6;0;1847,3;0
# WAVELENGTH_CORRECTION_TIME=2016-11-30_16:57:45
# LIMIT_BANDWIDTH=False
# SERIAL_NUMBER=
# FIRMWARE_VERSION=
# FIRMWARE_REVISION=
# LUT_TIMESTAMP=
# SPECTRAL_RESOLUTION=10
# AVERAGE_COUNT=-1
# MAX_ABSORBANCE=+unendlich
# LABEL=Wavelength Reference (TiO2 Zenith OEM)
#
# Raw wavelength;Raw intensity;Raw absorbance
1050;8,16825437844967;-0,91212925423027
1051;7,8617280464943;-0,895518016595539
1052;7,55267023800053;-0,878100523100034
1053;7,18750676031887;-0,856578266180164
1054;6,77068863620657;-0,830632842347628
1055;6,35445823019395;-0,803078529293323
1056;5,92785171084888;-0,772897330941992
1057;5,478296959691;-0,738645570170522
1058;5,00476553128718;-0,699383735990482
1059;4,55185991596728;-0,658188888128108
1060;4,1438524922355;-0,617404287531495
1061;3,77748700187213;-0,577202978629879
1062;3,47154330204412;-0,540522586767146
1063;3,23863999538729;-0,510362674868405
1064;3,08076408479364;-0,488658442687235
1065;2,9786806670848;-0,474023946667003
1066;2,91781339291571;-0,465057513390727
1067;2,92398226577593;-0,465974734257434
1068;2,98665628612329;-0,475185245493622
1069;3,07209557887832;-0,487434723317064
1070;3,21638815711235;-0,507368454354934
1071;3,41310540073084;-0,533149700012888
1072;3,63610058437566;-0,560635888475977
1073;3,88900219416624;-0,589838188175492
1074;4,17293761804432;-0,620441892418005
1075;4,50097836942971;-0,653306925833415
1076;4,84460795433557;-0,685258637907377
1077;5,17607128262672;-0,71400024861858
1078;5,48657456645219;-0,739301285946871
1079;5,75254358053112;-0,759859917512343
1080;5,96805448297454;-0,775832779201072
1081;6,09836451729856;-0,785213379871927
1082;6,14927870765111;-0,788824177294427
1083;6,15220474719668;-0,789030780482912
1084;6,11134767341414;-0,786136991353636
1085;6,00593125848177;-0,778580357128215
1086;5,83910445316429;-0,766346244223221
1087;5,64972394313824;-0,752027227837007
1088;5,44503633633427;-0,736000782276699
1089;5,20536248289969;-0,716450977620187
1090;4,95178869411233;-0,694762103916142
1091;4,7130589198137;-0,673302869080667
1092;4,49669907908542;-0,652893825378604
1093;4,29999425140802;-0,633467874978785
1094;4,12890956943418;-0,615835371146484
1095;3,99745537581075;-0,601783624351401
1096;3,92976657529309;-0,594366754428127
1097;3,92287392690035;-0,593604351022396
1098;3,95973547216396;-0,597666174103097
1099;4,05315372480512;-0,60779307563129
1100;4,16720834527378;-0,619845214145971
1101;4,29987017094928;-0,633455342814114
1102;4,45104459482231;-0,648461945481855
1103;4,59956719684843;-0,662716968015579
1104;4,71813999628987;-0,673770823093482
1105;4,83776943550117;-0,684645166366569
1106;4,96134911351335;-0,695599787958954
1107;5,08100237397516;-0,70594939782391
1108;5,18223819169415;-0,714517370626077
1109;5,28511434573498;-0,723054387894065
1110;5,397921678491;-0,732226578841108
1111;5,47481033307927;-0,738369078265787
1112;5,51317390268726;-0,741401691696811
1113;5,54390167476521;-0,743815519135211
1114;5,53640530947273;-0,743227876467513
1115;5,46520922556976;-0,737606792776313
1116;5,36586914987936;-0,729640077918805
1117;5,21491337460255;-0,71724709871757
1118;4,99863518034974;-0,698851441425003
1119;4,72805630958453;-0,674682640207423
1120;4,4231667239399;-0,645733309688944
1121;4,08145898974223;-0,610815437092174
1122;3,70799084046239;-0,569138652672688
1123;3,32304047820077;-0,521535631483997
1124;2,96103721703914;-0,471443866036091
1125;2,61084540294355;-0,416781156527535
1126;2,26274245381224;-0,3546351252082
1127;1,94567746156404;-0,289070848125204
1128;1,68416283114926;-0,226384078405268
1129;1,47731891579747;-0,169474258629666
1130;1,3130438765544;-0,118279238676746
1131;1,19787975419842;-0,0784132248069712
1132;1,13039522660817;-0,0532303149214413
1133;1,10194643386276;-0,0421604837687302
1134;1,11446001966545;-0,0470644931391632
1135;1,16404443636726;-0,0659695594382167
1136;1,23728308417919;-0,0924690754024555
1137;1,33238660498702;-0,124630257905763
1138;1,44111221296139;-0,158697798699177
1139;1,53783647262989;-0,186910156785121
1140;1,60614401045923;-0,205784482501708
1141;1,63850880148214;-0,214448778598993
1142;1,61856912586677;-0,209131251987848
1143;1,55435028753357;-0,191548897862504
1144;1,46433122896343;-0,165639324427587
1145;1,36914396195503;-0,136449115479168
1146;1,28604031857533;-0,109254584342712
1147;1,22216922516528;-0,0871313437683852
1148;1,18661927696221;-0,0743113992941324
1149;1,19212296637225;-0,076321054785565
1150;1,23296679368032;-0,0909513803138202
1151;1,3102203798865;-0,11734435040306
1152;1,42813050196515;-0,154767894900752
1153;1,57731533475958;-0,197918525577401
1154;1,74400196334532;-0,241546969512581
1155;1,92565088835792;-0,284577554334389
1156;2,11370907697511;-0,325045212413753
1157;2,27986300458626;-0,357908751325128
1158;2,42421673082806;-0,38457144420508
1159;2,54466806620067;-0,405631139749742
1160;2,63874645505327;-0,421397662875888
1161;2,71701015622194;-0,434091261819769
1162;2,79101555074248;-0,44576225626034
1163;2,83269906192211;-0,45220043873196
1164;2,87121880480017;-0,458066289708788
1165;2,91630206059038;-0,464832504712334
1166;2,92809112421144;-0,466584588139904
1167;2,91851949241385;-0,465162598252485
1168;2,90033463499113;-0,46244810884579
1169;2,84036609350466;-0,453374319674596
1170;2,74499781850623;-0,438542003645461
1171;2,61970827930663;-0,418252932639924
1172;2,47348580775605;-0,393309422834051
1173;2,30285369826657;-0,362266347841008
1174;2,10521495040645;-0,32329644554435
1175;1,89787366528945;-0,27826729961195
1176;1,68308741714556;-0,22610667319389
1177;1,48041664269231;-0,170383958744615
1178;1,27323198968727;-0,104907541644009
1179;1,08934936006356;-0,0371671826168181
1180;0,910461336175217;0,0407384923097885
1181;0,75934431135664;0,119561256231436
1182;0,619943176508182;0,207648115759639
1183;0,500988986174048;0,300171821630584
1184;0,395807400619221;0,402516089821279
1185;0,306570317031824;0,51346989701375
1186;0,240148101289967;0,619520842722916
1187;0,184694204995379;0,733546730861934
1188;0,144760760058288;0,839349145318925
1189;0,114238795487505;0,942186384663557
1190;0,093959768580528;1,02705806154453
1191;0,0801184210632673;1,09626761816862
1192;0,0714280041468533;1,14613148483442
1193;0,0661605069062556;1,17940117598051
1194;0,063839327324433;1,19491169779809
1195;0,0640209992242704;1,19367755177576
1196;0,066215891172876;1,17903777158018
1197;0,0692498082667558;1,15958142470114
1198;0,0730701465914077;1,13626002138373
1199;0,0776177118496972;1,11003916429759
1200;0,0822908465499704;1,08464846993865
1201;0,0870174210707778;1,06039379200776
1202;0,0913641955754504;1,03922396521219
1203;0,0955209246579594;1,01990148215372
1204;0,0997655842367828;1,00101924983279
1205;0,103496410641912;0,985074711708915
1206;0,106070173826496;0,974406719431288
1207;0,108395020251129;0,964990669154943
1208;0,109739982445461;0,959635113611782
1209;0,110118707490761;0,958138894744421
1210;0,109995701711467;0,958624285382354
1211;0,109798104020372;0,959405159162788
1212;0,109188211044928;0,961824249493185
1213;0,108809736400364;0,963332241809137
1214;0,108721418819945;0,963684888673907
1215;0,10870572931839;0,963747565888036
1216;0,108831362961436;0,96324593185946
1217;0,109331530284433;0,961254573148028
1218;0,10900636382334;0,962548147080626
1219;0,10732002095583;0,969319251197632
1220;0,103908862208146;0,983347410633764
1221;0,0990782450383799;1,00402169462655
1222;0,092387478038315;1,03438688795074
1223;0,0842899831662294;1,07422403289732
1224;0,0764082445876166;1,11685977773681
1225;0,0686064694714294;1,16363492914361
1226;0,0613607816610298;1,21210911664529
1227;0,0554569224621003;1,25604423491706
1228;0,0506756939788514;1,29520029514365
1229;0,0471702675064799;1,32633166082747
1230;0,045034582778923;1,34645385640531
1231;0,0436938747531794;1,35957944054316
1232;0,0428226185186293;1,36832677997895
1233;0,0423013413542931;1,37364586114667
1234;0,0418742667514647;1,37805278469733
1235;0,0409596224288711;1,38764405539682
1236;0,0392183323115135;1,40651087786115
1237;0,0370618936625997;1,43107239434774
1238;0,0338843468730125;1,4700008810489
1239;0,0296930127160169;1,52734573572957
1240;0,0255448236465155;1,59269709120484
1241;0,0213147247826125;1,67132027062484
1242;0,0172457704077397;1,76331739994218
1243;0,0136294243644279;1,86552248610455
1244;0,0104535275655173;1,98073713120643
1245;0,00793001563453999;2,10072595644182
1246;0,00602480163585065;2,22005724748731
1247;0,00449131076535819;2,347626893944
1248;0,00318441020118267;2,4969709934986
1249;0,00219434393930013;2,65869530053823
1250;0,00148548304777438;2,82813229996941
1251;0,000976735994830477;3,01022280729688
1252;0,00063249494857792;3,19894293863198
1253;0,000373844663436659;3,42730881444636
1254;0,000212574126052509;3,67248959774525
1255;0,000125720992494931;3,90059219913576
1256;7,29783255684383E-05;4,13680610540998
1257;4,49273725594866E-05;4,34748897905402
1258;2,84293952136796E-05;4,5462323790769
1259;1,99773450289155E-05;4,6994622296189
1260;1,59831108160058E-05;4,79633868943114
1261;1,42036407010648E-05;4,84760032225598
1262;1,39799581555647E-05;4,85449412850697
1263;1,52508826017106E-05;4,81670502202467
1264;1,82097390581877E-05;4,73969627751101
1265;2,27170411797513E-05;4,6436482347122
1266;2,89664319212052E-05;4,53810499780167
1267;3,83167680402241E-05;4,41661113011258
1268;5,25720458183282E-05;4,2792451222716
1269;7,50964225590105E-05;4,12438075140978
1270;0,000106685792496777;3,97189341235701
1271;0,000159143949002816;3,79820986954468
1272;0,000252514562088093;3,59771357179424
1273;0,000395658732392359;3,40267924472741
1274;0,000637484826107655;3,19553014817423
1275;0,00105451990451936;2,97694521835092
1276;0,00183331161764802;2,73676370943896
1277;0,0030015001585925;2,52266162936096
1278;0,00464534540403592;2,33298198856166
1279;0,00701136803357533;2,15419723574706
1280;0,0105407942527351;1,9771266636411
1281;0,0150917706530958;1,82125980331545
1282;0,0204809620785817;1,68864964654359
1283;0,0265178789032334;1,57646121697397
1284;0,0336694754962718;1,4727636490069
1285;0,0427498795836205;1,36906510423973
1286;0,0534484197769182;1,27206513034874
1287;0,0654330136777;1,18420307674498
1288;0,0806006236219386;1,09366159796515
1289;0,0986587973404876;1,00586418292996
1290;0,123287683347652;0,909080308005494
1291;0,154624302599086;0,81072224615378
1292;0,18824770611315;0,72527030717757
1293;0,229463252092048;0,639286855623474
1294;0,274328057989238;0,561729770934583
1295;0,326450726328693;0,486182360785379
1296;0,382570114282973;0,417288959319011
1297;0,436530676967669;0,359985231065762
1298;0,493945461519516;0,306321000608128
1299;0,55036145430463;0,259351990413903
1300;0,6017986398533;0,220548798159371
1301;0,652073087906538;0,185703723446689
1302;0,698600256473245;0,155771259258214
1303;0,743164447287252;0,128915075005113
1304;0,786153740749969;0,104492514736345
1305;0,824305614205269;0,0839117422404108
1306;0,857983419558845;0,0665211047663039
1307;0,882599244102341;0,0542364488379799
1308;0,890399502660568;0,0504150912517751
1309;0,879344831019227;0,0558407849472694
1310;0,853243040588116;0,0689272453247464
1311;0,81296348352658;0,0899289614896618
1312;0,760810589779394;0,118723451051258
1313;0,694558105935316;0,158291415827769
1314;0,623724062407275;0,205007501148288
1315;0,558882748786328;0,252679295684744
1316;0,500408687813461;0,300675158937266
1317;0,452145559819536;0,344721729680339
1318;0,412768710746135;0,384293231112724
1319;0,388840519469327;0,41022848534805
1320;0,377503306467795;0,42307924012902
1321;0,380071593559361;0,42013458822755
1322;0,395679684436069;0,402656247342788
1323;0,422446150660037;0,374228642836602
1324;0,461650570328747;0,335686623570327
1325;0,511681236028726;0,291000508841054
1326;0,570195519255875;0,243976199811712
1327;0,631137359826495;0,199876111242968
1328;0,692263086570262;0,159728825583787
1329;0,75521192701718;0,121931159868827
1330;0,819629135456971;0,0863826120774644
1331;0,886246885736695;0,052445277912962
1332;0,952381612555834;0,0211889980242188
1333;1,01889894796878;-0,0081311138241434
1334;1,10833829303352;-0,0446723383470709
1335;1,20963081593557;-0,0826528421620097
1336;1,31696050209586;-0,119572749920747
1337;1,45263342957157;-0,162156034394708
1338;1,60394885572262;-0,205190516048164
1339;1,79075157113501;-0,253035340863726
1340;1,98854814653665;-0,298536110545563
1341;2,20634395553079;-0,343673217236031
1342;2,42678295109387;-0,385030935228718
1343;2,66366371381479;-0,42547939450225
1344;2,92350702732002;-0,465904142101005
1345;3,18252546961902;-0,502771887980284
1346;3,43515835333276;-0,535946761888572
1347;3,69271186630208;-0,56734542198704
1348;3,97246952849002;-0,59906057456176
1349;4,21832393631855;-0,625139927312845
1350;4,46495471475092;-0,649817058469018
1351;4,73501396097715;-0,67532126383906
1352;5,01472259842423;-0,700246913965467
1353;5,28284767100985;-0,722868088144135
1354;5,56911057199663;-0,745785840682229
1355;5,83088875219855;-0,765734755575189
1356;6,11839922347904;-0,7866378111412
1357;6,41482486715586;-0,807184804083347
1358;6,70734546006276;-0,826550675139704
1359;6,99531241569213;-0,844807115165419
1360;7,28714921184136;-0,862557662240024
1361;7,57945536738756;-0,879637999901687
1362;7,89115561819934;-0,897140608007471
1363;8,15978808587075;-0,9116788800367
1364;8,42781568327176;-0,925715028999029
1365;8,70720361483647;-0,939878700399095
1366;8,918543882576;-0,950293953548363
1367;9,07665663013225;-0,957925906398423
1368;9,23422438795706;-0,965400423525447
1369;9,34401614167435;-0,970533580007413
1370;9,39406830352106;-0,972853713579235
1371;9,44175806251262;-0,975052867789589
1372;9,42110275978989;-0,97410174084607
1373;9,39508445370994;-0,972900688387087
1374;9,37043630550781;-0,971759812943595
1375;9,3362933323049;-0,970174488131586
1376;9,34327834676222;-0,970499287161064
1377;9,3687127321197;-0,97167992261216
1378;9,39002210585879;-0,972666614677313
1379;9,38348794055576;-0,97236430018817
1380;9,3432114989428;-0,970496179928048
1381;9,20138176402355;-0,963853049892377
1382;8,98181918473677;-0,953364307923146
1383;8,60005107812743;-0,93450103064857
1384;8,07616829366895;-0,907205360327351
1385;7,49908412786172;-0,875008225724481
1386;6,8404274645753;-0,835083242027947
1387;6,21470812329696;-0,793420736611104
1388;5,62863203856551;-0,750402858387707
1389;5,19758089146409;-0,71580125710752
1390;4,92568313701781;-0,692466470785507
1391;4,80427958047705;-0,681628272820251
1392;4,82805882360807;-0,683772552770126
1393;4,98432158906754;-0,697606055290719
1394;5,24723669221323;-0,719930654784134
1395;5,56626755229515;-0,745564077616558
1396;5,91059576838946;-0,771631258526532
1397;6,28125575498692;-0,798046477008311
1398;6,63366041359224;-0,821753235607066
1399;6,93803246115626;-0,841236327455892
1400;7,15894112647767;-0,854848790892339
1401;7,34457074576977;-0,865966418480099
1402;7,45228545959699;-0,872289482181444
1403;7,48369104389531;-0,874115849819276
1404;7,50562499271349;-0,875386861747226
1405;7,53431066441059;-0,877043523626422
1406;7,51286336625989;-0,875805490554257
1407;7,48541735113026;-0,87421601954078
1408;7,48870181514719;-0,874406538209103
1409;7,4880782992672;-0,874370376964277
1410;7,50346228179755;-0,875261703780448
1411;7,52158975726709;-0,876309642432056
1412;7,54326956645365;-0,877559627950794
1413;7,56738674814146;-0,878945930120811
1414;7,59633115232634;-0,880603888989306
1415;7,61059983992228;-0,881418887638101
1416;7,66746034404362;-0,884651538497684
1417;7,70105246814571;-0,886550082298849
1418;7,71746087285672;-0,887474436308264
1419;7,71111601174082;-0,887117237021898
1420;7,7286188495927;-0,888101889831181
1421;7,70043835578131;-0,886515448559257
1422;7,68717143656792;-0,885766566658603
1423;7,66698336071135;-0,884624520728639
1424;7,66765868275564;-0,884662772503501
1425;7,63915785922028;-0,883045484589786
1426;7,60300385812447;-0,880985210868411
1427;7,54365529468943;-0,877581835212498
1428;7,50725167637821;-0,875480975587995
1429;7,48133142189019;-0,873978894351681
1430;7,44080959695149;-0,871620191508218
1431;7,38575489290312;-0,868394890855446
1432;7,36006171553006;-0,866881455995349
1433;7,34263461302581;-0,865851917218455
1434;7,28188907107316;-0,862244058807242
1435;7,21759066670967;-0,858392248154335
1436;7,15556359162342;-0,854643845655917
1437;7,07689540080053;-0,849842776615452
1438;6,96456785815068;-0,842894174221149
1439;6,86807844703078;-0,836835247018585
1440;6,75942663962323;-0,829909858987738
1441;6,61619576796815;-0,820608347162755
1442;6,46373958949152;-0,810483851305359
1443;6,3023778846682;-0,799504439508571
1444;6,07197730266451;-0,783330139477349
1445;5,79779478733598;-0,763262839458987
1446;5,49160253871835;-0,73969909712119
1447;5,10181152263212;-0,70772441033163
1448;4,64105277509235;-0,666616506966987
1449;4,12916748778327;-0,615862499136464
1450;3,62563797369715;-0,559384436859595
1451;3,12569960598756;-0,494947238004769
1452;2,66653960635915;-0,425948038682869
1453;2,24992659242185;-0,352168348766389
1454;1,85334247762478;-0,267955679653145
1455;1,53744850950265;-0,186800579788379
1456;1,29040141633006;-0,110724831057895
1457;1,10577296986953;-0,0436659695962182
1458;0,961293972275988;0,0171437808913824
1459;0,845285825298255;0,0729964137007542
1460;0,766505397083915;0,115484782863734
1461;0,714473555793203;0,146013840750718
1462;0,67731308080487;0,169210536874791
1463;0,649657105641619;0,187315807081221
1464;0,632738223358948;0,198775929263853
1465;0,611989534418548;0,213256004624271
1466;0,586178873591794;0,231969837975105
1467;0,554421208158957;0,256160165102168
1468;0,516254690624685;0,287135989373001
1469;0,474660800600513;0,32361663258716
1470;0,436480776686825;0,360034878562479
1471;0,401900557864373;0,39588139097828
1472;0,37202760822146;0,429424829867213
1473;0,351229645782143;0,454408834291506
1474;0,338559999567568;0,470364354535639
1475;0,335968509998139;0,473701426702236
1476;0,346661565253769;0,460094306377919
1477;0,372271310709706;0,429140431631607
1478;0,417690755012346;0,37914513711591
1479;0,486773545566553;0,3126730321812
1480;0,58180795953099;0,235220341602639
1481;0,714347410809356;0,146090525054529
1482;0,876141206440755;0,0574258935626071
1483;1,06022835262775;-0,0253994139492029
1484;1,26025864288972;-0,100459684524346
1485;1,45631903649371;-0,163256526495489
1486;1,60774227412859;-0,206216431293907
1487;1,695394670889;-0,229270813711499
1488;1,71257120038712;-0,233648636393621
1489;1,66631279884235;-0,221756530119901
1490;1,58365442371354;-0,199660418258453
1491;1,48223452144528;-0,17091692382658
1492;1,37750467386843;-0,139093081085947
1493;1,29273214473474;-0,111508547993732
1494;1,22487028868646;-0,0880901002186135
1495;1,17120360725659;-0,0686324013246475
1496;1,13867105540912;-0,0563982811874905
1497;1,1291602848423;-0,0527555946102372
1498;1,12409246196172;-0,0508020354930199
1499;1,12672377111727;-0,0518174569656707
1500;1,13801493148598;-0,0561479603186516
1501;1,15446374710581;-0,0623802995926457
1502;1,17444470965211;-0,0698325759384815
1503;1,20024881415728;-0,0792712855595943
1504;1,23090724960266;-0,0902253295329968
1505;1,2639991906966;-0,101746795879819
1506;1,28773648355502;-0,109827000099286
1507;1,29683780396902;-0,112885662093263
1508;1,27840806796633;-0,106669502788287
1509;1,23469570095416;-0,0915599359921155
1510;1,16215068082637;-0,0652624409707265
1511;1,07340784200707;-0,0307647637924159
1512;0,985705554676741;0,00625279608968831
1513;0,906747238968802;0,0425137581654371
1514;0,846836055770114;0,0722006592867265
1515;0,808165916323087;0,0924994694896834
1516;0,78229288269254;0,10663062095098
1517;0,770825031827372;0,113044190477428
1518;0,759424897620744;0,11951516868944
1519;0,73695202027137;0,132560786238217
1520;0,68960828190839;0,161397531456088
1521;0,619691074282289;0,207824759163965
1522;0,527039148448114;0,278157124211508
1523;0,428046192362416;0,36850936181481
1524;0,33233896972156;0,478418730816591
1525;0,244681940490696;0,611398083916186
1526;0,175746215221454;0,755114018946184
1527;0,122600476641332;0,911507841381241
1528;0,0851061753642219;1,07003892605758
1529;0,0589195511207314;1,22974057049424
1530;0,040396040800346;1,39366119783052
1531;0,0286583424162642;1,54274893258097
1532;0,02122161879863;1,67322149091075
1533;0,0170339673356452;1,76868418989328
1534;0,0150954602610511;1,82115364078681
1535;0,0148279770867284;1,82891809374546
1536;0,0160749187057778;1,79385121471612
1537;0,0191736758518485;1,71729461903959
1538;0,0242134594422716;1,61594315730107
1539;0,031619068477958;1,50005092886433
1540;0,0412944563799482;1,38410824677445
1541;0,0521812269750451;1,28248571323452
1542;0,0632110134595893;1,19920724659078
1543;0,0740002579635189;1,13076676632392
1544;0,0831157498683062;1,08031667257232
1545;0,0901289113188659;1,04513587481242
1546;0,0963069933236934;1,01634217547551
1547;0,101662626602677;0,992838673855111
1548;0,106527263342213;0,972539229748103
1549;0,111629042643511;0,95222279985276
1550;0,118370371034281;0,92675699108118
1551;0,126038990584851;0,899495083641359
1552;0,137004814213947;0,863264171896019
1553;0,152854647642115;0,815721351739083
1554;0,177066415284848;0,751863804928684
1555;0,212829602295666;0,671967966510707
1556;0,270184790423062;0,568339102468888
1557;0,352627276890158;0,45268409661782
1558;0,457758583517757;0,339363503411963
1559;0,595231065757133;0,225314410568999
1560;0,761125445049039;0,118543758994527
1561;0,970470177058281;0,0130178061159373
1562;1,20067159959108;-0,079424238053788
1563;1,39247677188505;-0,143787959374464
1564;1,5509223563483;-0,19059005632196
1565;1,68659972112924;-0,227012024182688
1566;1,78198251199322;-0,250903437645799
1567;1,84838182750311;-0,266791690070688
1568;1,8793588165079;-0,274009705673884
1569;1,87527655617509;-0,273065324311188
1570;1,84557704206608;-0,266132179169065
1571;1,80791213417642;-0,257177319629607
1572;1,75798689914851;-0,245015634305041
1573;1,71299982815441;-0,233757319397738
1574;1,68921520393721;-0,227684981677992
1575;1,67998894550805;-0,225306424035
1576;1,70229913841446;-0,231035879336935
1577;1,75451337213478;-0,244156682566937
1578;1,84987444076977;-0,267142251899561
1579;1,98772280578306;-0,298355820548016
1580;2,17601930437569;-0,337662743850891
1581;2,40469770338682;-0,381060488608944
1582;2,70602586669725;-0,432331943669657
1583;2,99292594856553;-0,476095971592208
1584;3,27528841804532;-0,515249549472948
1585;3,55858374111692;-0,551277190164932
1586;3,8410684826005;-0,584452050292062
1587;4,06056023383609;-0,608585957143295
1588;4,24756233243349;-0,628139760803775
1589;4,36740129325405;-0,640223098364868
1590;4,44504288068756;-0,647875954902669
1591;4,50378359765238;-0,653577514924265
1592;4,52096652360606;-0,655231291226509
1593;4,51234889643969;-0,654402672079103
1594;4,46865813209813;-0,650177130891627
1595;4,4025195177187;-0,643701290004162
1596;4,3193485049992;-0,635418246347092
1597;4,21089147588421;-0,624374048821838
1598;4,04840314341105;-0,607283753397229
1599;3,88036934200934;-0,58887306465673
1600;3,71327987972808;-0,569757684383877
1601;3,48974364079646;-0,542793524530305
1602;3,26976691446621;-0,514516795055068
1603;3,03216563872699;-0,481752921900732
1604;2,81418274857766;-0,449352296411385
1605;2,54688384381141;-0,406009138468887
1606;2,29865858545979;-0,36147447128592
1607;2,09346840539518;-0,320866410908609
1608;1,91169027206477;-0,281417530184152
1609;1,74834186938026;-0,242626358200206
1610;1,61497627668078;-0,208166147111514
1611;1,53137611208831;-0,18508186825802
1612;1,48547605758131;-0,171865656379253
1613;1,46324959719653;-0,165318413233614
1614;1,47812990530218;-0,169712603664168
1615;1,51084705699306;-0,179220502945373
1616;1,55557534964446;-0,191891052501773
1617;1,62080712071153;-0,209731336011596
1618;1,69898614715703;-0,230189837822672
1619;1,76490550345619;-0,246721457357735
1620;1,82727729972398;-0,261804459011842
1621;1,88246678746976;-0,274727322643864
1622;1,92667503271358;-0,284808469507157
1623;1,95491375229645;-0,29112760176872
1624;1,9750895835875;-0,295586798582929
1625;1,9845032543243;-0,29765181542959
1626;1,98478636588006;-0,297713767969417
1627;1,96962518396871;-0,294383588587201
1628;1,94826762967615;-0,289648614815712
1629;1,92037917853985;-0,283386988541522
1630;1,88937119406022;-0,276317289682165
1631;1,84626345133489;-0,266293672473956
1632;1,77695124783051;-0,2496755127301
1633;1,70147995511512;-0,230826837102604
1634;1,61268165344507;-0,207548645257989
1635;1,49820197525535;-0,175570365316713
1636;1,38392808126773;-0,141113521681343
1637;1,27692355416508;-0,106164898048029
1638;1,18434793626938;-0,0734793076264992
1639;1,10894903795781;-0,0449115884915775
1640;1,05006716510951;-0,0212170785971208
1641;1,01936780127423;-0,0083309114286953
1642;1,01989019655892;-0,00855341725652438
1643;1,05061154657679;-0,0214421695367886
1644;1,11182919758113;-0,0460380747950638
1645;1,21166816631343;-0,0833836979894895
1646;1,35144954552576;-0,130799836561736
1647;1,54017439096307;-0,187569897943615
1648;1,75243970414115;-0,243643084208302
1649;1,99864595373897;-0,300735868677651
1650;2,25707265415278;-0,353545539046655
1651;2,50341202113766;-0,398532333339951
1652;2,74312908695061;-0,438246245238954
1653;2,93972211480169;-0,468306279489695
1654;3,09140832332777;-0,490156371888356
1655;3,19838830785083;-0,504931189153623
1656;3,24881033550368;-0,511724358113684
1657;3,24923008324755;-0,511780465529908
1658;3,21465571888084;-0,507134467961157
1659;3,14882641590617;-0,498148720118298
1660;3,06442353375027;-0,48634878891716
1661;2,97926496773951;-0,474109129905145
1662;2,8722212256482;-0,458217887303594
1663;2,76802056533847;-0,442169312439285
1664;2,66392869880714;-0,42552259657596
1665;2,54566432658516;-0,405801136661401
1666;2,43484567876869;-0,386471440711616
1667;2,31308028826674;-0,3641907076284
1668;2,17296430839452;-0,337052592958992
1669;2,03236006323663;-0,308000652245755
1670;1,87206318412525;-0,272320502550516
1671;1,68030340710259;-0,22538770799565
1672;1,48210816297794;-0,170879899237332
1673;1,27905388695693;-0,106888841832095
1674;1,06996251578875;-0,0293685632260926
1675;0,878026683010118;0,056492285793248
1676;0,710747921546487;0,148284401651183
1677;0,575103348217362;0,240254103958367
1678;0,472274910646916;0,325805125473523
1679;0,395317547328876;0,403053907794731
1680;0,344628449410516;0,462648873980241
1681;0,319158633933712;0,495993402466984
1682;0,31380378280754;0,503341825431879
1683;0,330871176944376;0,480341063723248
1684;0,371831705088286;0,429653581864183
1685;0,434737595486515;0,361772801018439
1686;0,536087108542274;0,270764636267083
1687;0,666109451814897;0,176454403842119
1688;0,825514991335121;0,0832750355507912
1689;1,01904831702844;-0,00819477607842294
1690;1,2186990379;-0,0858964682786426
1691;1,43862218592849;-0,157946753554105
1692;1,64829645845128;-0,217035325498513
1693;1,83996412968001;-0,264809356469382
1694;2,00487504244702;-0,302087309591173
1695;2,13882120196821;-0,330174480577061
1696;2,2588108842187;-0,353879871744464
1697;2,34325961904137;-0,369820408473514
1698;2,40405622787839;-0,380944621056052
1699;2,45521930612944;-0,390090290425607
1700;2,49375426869504;-0,396853656436985
1701;2,52150006541374;-0,40165898376179
1702;2,53893667161422;-0,404651868454859
1703;2,54801203118564;-0,406201474316843
1704;2,5484195205234;-0,4062709230554
1705;2,53615931990279;-0,404176532167621
1706;2,51154735672359;-0,399941371454291
1707;2,4802144039901;-0,394489225360494
1708;2,44223549521511;-0,387787538946015
1709;2,39700003052985;-0,379668039565128
1710;2,34113123953058;-0,369425760132484
1711;2,28538263105388;-0,358958922411824
1712;2,23188396648328;-0,34867161229693
1713;2,17353713512785;-0,337167064560596
1714;2,12061352890216;-0,326461527753487
1715;2,0772507815008;-0,317488931030666
1716;2,0392218108778;-0,309464467563807
1717;2,00932874467285;-0,303050997135173
1718;1,99071278552588;-0,299008605753653
1719;1,97922899027946;-0,296496043555352
1720;1,97432937812049;-0,295419607891481
1721;1,98057980743402;-0,29679234698262
1722;1,99825573827476;-0,300651068781905
1723;2,01749717087073;-0,304812934384893
1724;2,03515020554092;-0,308596468121541
1725;2,06333575818336;-0,314569904687387
1726;2,09746989887288;-0,321695736915655
1727;2,12481437684969;-0,327320996207014
1728;2,15367922166399;-0,333181018072633
1729;2,19501320066468;-0,341437136404376
1730;2,23392136414263;-0,349067881528022
1731;2,2660769138314;-0,355274646341888
1732;2,30577742106791;-0,36281738211418
1733;2,34985911111069;-0,371041824356232
1734;2,38505831421468;-0,377499001922063
1735;2,41203031249217;-0,382382761372491
1736;2,43742863291539;-0,386931908561432
1737;2,44940640460783;-0,389060849083654
1738;2,44355142561516;-0,388021483378874
1739;2,43106059256277;-0,385795783478345
1740;2,41096831992264;-0,382191503793804
1741;2,37079971390193;-0,374894866158164
1742;2,31610167058633;-0,364757619824596
1743;2,2508399843555;-0,3523446214414
1744;2,16884157790914;-0,336227830320966
1745;2,06649021425204;-0,315233353045552
1746;1,9467675201323;-0,289314091863133
1747;1,81280628820814;-0,258351398989623
1748;1,66750677803291;-0,222067607899715
1749;1,51521709640767;-0,180474861892583
1750;1,36817276836688;-0,136140942128808
1751;1,22901309827427;-0,0895565114282943
1752;1,09409223370166;-0,0390539352508087
1753;0,978201336076304;0,00957174833321046
1754;0,883703524930918;0,0536934126822144
1755;0,809468197294121;0,0918002093083715
1756;0,75672246085622;0,121063375215536
1757;0,728797996982253;0,137392829642015
1758;0,725445663692023;0,139395110920871
1759;0,742846743550977;0,129100776139127
1760;0,783845006373774;0,105769804064566
1761;0,847350108327525;0,0719371106866089
1762;0,92856673234899;0,0321868798084072
1763;1,02996987073327;-0,0128245206608365
1764;1,15033633465477;-0,0608248376830717
1765;1,27755782029758;-0,106380564750336
1766;1,4069897976025;-0,148290948279805
1767;1,54606001261744;-0,189226347695341
1768;1,68565333394822;-0,226768263863081
1769;1,81744834284793;-0,25946207579797
1770;1,94483311885242;-0,288882341563571
1771;2,06017807372276;-0,313904760705434
1772;2,16879508447402;-0,336218520254728
1773;2,271943756247;-0,356397575870885
1774;2,35432961430484;-0,371867265496608
1775;2,42489659092851;-0,384693222960262
1776;2,47956849429002;-0,394376109514138
1777;2,53267681819351;-0,403579775250523
1778;2,57140000456135;-0,410169640338382
1779;2,60488643719781;-0,415788794517155
1780;2,62208060077964;-0,418646037444006
1781;2,62928825480765;-0,419838201401075
1782;2,62851518049467;-0,419710489547722
1783;2,6257709743675;-0,419256843266773
1784;2,61451509927692;-0,417391154298669
1785;2,60519316552755;-0,415839930173945
1786;2,60499113682866;-0,415806250002933
1787;2,60901507820287;-0,416476589012594
1788;2,6225855520836;-0,418729664336252
1789;2,65819380801925;-0,424586642026141
1790;2,69974525445414;-0,43132278645366
1791;2,7478610624138;-0,438994770107875
1792;2,80798378482895;-0,448394595559035
1793;2,87186775692975;-0,45816443774367
1794;2,94044908950591;-0,46841366449369
1795;3,01322242352583;-0,479031190665929
1796;3,09924703700693;-0,491256194675223
1797;3,1842604665533;-0,50300858499535
1798;3,26173061464882;-0,513448089934614
1799;3,34678581020621;-0,524627918983985
1800;3,41493324771418;-0,533382218871806
1801;3,47832560335441;-0,541370233538277
1802;3,5445569085615;-0,549561953427739
1803;3,60660791397327;-0,557098931324907
1804;3,65063983172433;-0,562368988027652
1805;3,69661856449439;-0,567804640218341
1806;3,7405852357232;-0,572939555345243
1807;3,76511095935748;-0,575777779561045
1808;3,78875765052069;-0,578496826333928
1809;3,80737662395134;-0,580625839150493
1810;3,82406257752961;-0,5825249905218
1811;3,84133603093005;-0,584482299874209
1812;3,83565351404738;-0,583839369162445
1813;3,82091269327625;-0,582167114301456
1814;3,80943956511739;-0,58086108809561
1815;3,79743702767912;-0,579490580755173
1816;3,76890634562929;-0,576215345705972
1817;3,75383901683823;-0,574475643991789
1818;3,72306431360546;-0,570900538448505
1819;3,68483204093381;-0,566417696982578
1820;3,62951956276097;-0,559849141551066
1821;3,57104347466949;-0,552795137421606
1822;3,51228708695324;-0,545590007001699
1823;3,44778141407714;-0,537539724185938
1824;3,38028739573512;-0,528953626039728
1825;3,30786356428049;-0,519547588394995
1826;3,23302804873517;-0,509609472430322
1827;3,14052283268465;-0,49700195522231
1828;3,04768310094816;-0,483969806937719
1829;2,94789439521204;-0,469511921385736
1830;2,84227315346107;-0,453665812979317
1831;2,71640820660169;-0,433995033853478
1832;2,58349442012132;-0,412207527885499
1833;2,42625494016394;-0,384936432676174
1834;2,2527375166265;-0,352710591758604
1835;2,05138804828508;-0,312047820918487
1836;1,83371819410745;-0,263332594066925
1837;1,60373301651533;-0,205132070241768
1838;1,37080936905802;-0,13697706403642
1839;1,13843467351559;-0,0563081146650929
1840;0,925830894471215;0,0334683311417765
1841;0,749200629514163;0,125401866381674
1842;0,607200863039363;0,21666761983167
1843;0,49182038219059;0,308193477042037
1844;0,407507056273238;0,389864866742414
1845;0,350798840491433;0,454941850793465
1846;0,314909176434346;0,501814683864142
1847;0,296501748935654;0,527972740576738
1848;0,295466353858517;0,529491967119576
1849;0,309499575459248;0,509339942365454
1850;0,338439566891345;0,470518869397588
1851;0,385192018283031;0,414322720642907
1852;0,448381483530542;0,348352330436011
1853;0,52697809537865;0,278207436502615
1854;0,616263965761203;0,210233225630657
1855;0,712512587360487;0,147207458936414
1856;0,812366281278094;0,0902481110658101
1857;0,900900985478603;0,0453229380145506
1858;0,977435367504216;0,00991195051960828
1859;1,03852627488058;-0,016417488729853
1860;1,07576358695189;-0,0317168399518665

