#
# CULTURE=de-DE
# SPECTRUM_TIME=2015-04-20_16:47:21
# DARK_INTENSITY=4,94065645841247E-324
# DARK_INTENSITY_SIGMA=0
# DARK_INTENSITY_TIME=2015-04-20_16:47:21
# LIMIT_BANDWIDTH=False
# SERIAL_NUMBER=
# FIRMWARE_VERSION=
# FIRMWARE_REVISION=
# LUT_TIMESTAMP=
# SPECTRAL_RESOLUTION=10
# AVERAGE_COUNT=-1
# LABEL=Wavelength Reference (Zenith Apo-Ident Batch 1)
# MAX_ABSORBANCE=∞
#
# Raw wavelength;Raw intensity;Raw absorbance
1000;13,6162459584069;-1,13405738773274
1001;13,5885378210327;-1,13317272748887
1002;13,4404123073573;-1,1284125916392
1003;13,2759670900105;-1,12306616715894
1004;13,1421300773055;-1,11866576140696
1005;13,0092898774443;-1,11425359089483
1006;12,8553256081584;-1,10908308121502
1007;12,7544928222684;-1,10566319372829
1008;12,7101390185697;-1,10415030072454
1009;12,6965231026142;-1,10368480724859
1010;12,6982328715404;-1,10374328729162
1011;12,7722614395814;-1,10626779967366
1012;12,9201247302059;-1,11126670633543
1013;13,1025362749519;-1,1173553707398
1014;13,3308360785146;-1,12485738819095
1015;13,6113416143834;-1,13390093394746
1016;13,8700027842149;-1,14207654825202
1017;14,1850464561918;-1,15183076245367
1018;14,4395115755091;-1,15955250323025
1019;14,6548803485518;-1,16598227694192
1020;14,8659337054737;-1,17219219173808
1021;14,994400404254;-1,17592910388479
1022;15,0434868667101;-1,17734851121959
1023;15,1363060451441;-1,18001990026633
1024;15,1408844715351;-1,18015124569823
1025;15,1082966948682;-1,17921550486073
1026;15,0828521220356;-1,17848347308156
1027;15,0369873173669;-1,17716083342959
1028;14,9609860025992;-1,17496021661513
1029;14,9163214656978;-1,17366173438854
1030;14,8700411583899;-1,17231217059572
1031;14,8020707249981;-1,17032247495803
1032;14,7183564410808;-1,16785931622287
1033;14,5955146801159;-1,16421941407519
1034;14,4019734756531;-1,15842200673846
1035;14,1652012818071;-1,15122275005004
1036;13,9504690201423;-1,14458880900285
1037;13,7285436325683;-1,13762446834481
1038;13,4898375744631;-1,13000672054373
1039;13,2640804067831;-1,12267714590496
1040;13,0345332759016;-1,11509548511467
1041;12,7901674933151;-1,1068762318083
1042;12,5360374729914;-1,09816028166483
1043;12,2524864251879;-1,08822423002007
1044;11,9649890327028;-1,07791230486848
1045;11,6634850826649;-1,06682833824641
1046;11,334664901078;-1,0544086851362
1047;11,0334577187052;-1,04271163509015
1048;10,7063699405912;-1,02964224562145
1049;10,3777877113829;-1,01610478249709
1050;10,0592509898093;-1,00256564442737
1051;9,78173233139734;-0,990415774556864
1052;9,47609340766108;-0,976629332995413
1053;9,21215423536865;-0,964361200569742
1054;8,97781621315168;-0,95317071061887
1055;8,76425431762528;-0,942714971255032
1056;8,58624825968712;-0,933803441359059
1057;8,44226721717614;-0,926459094455254
1058;8,26512025575201;-0,917249176846313
1059;8,12226743891053;-0,909677285244008
1060;8,01242760939186;-0,903764118784761
1061;7,85745810393089;-0,895282074031948
1062;7,73589699965928;-0,888510678658011
1063;7,6229582329657;-0,882123540228878
1064;7,51183285746689;-0,875745916067508
1065;7,35781772769819;-0,866749025023326
1066;7,22104117706023;-0,858599821510279
1067;7,06672131825883;-0,849217964906229
1068;6,83303341226357;-0,834613544347189
1069;6,58973835605618;-0,81886817138053
1070;6,3206511632302;-0,800761822274493
1071;6,01720905498798;-0,779395100381551
1072;5,67315293899739;-0,753824491597018
1073;5,30421439004227;-0,724621069418331
1074;4,959259842109;-0,695416863894598
1075;4,57675089599663;-0,66055727523303
1076;4,22261426527653;-0,625581410547992
1077;3,87623800604512;-0,588410435442357
1078;3,55379942735953;-0,550692913044673
1079;3,2769596408433;-0,515471092628338
1080;3,01325423966173;-0,47903577628802
1081;2,80051791410179;-0,447238355069631
1082;2,62642066597788;-0,419364286978687
1083;2,4888312499987;-0,395995451177147
1084;2,38445452832573;-0,377389044830059
1085;2,29161589072056;-0,360141825110271
1086;2,24592965299409;-0,351396149167226
1087;2,24564274248704;-0,351340665857948
1088;2,27483326148611;-0,356949569665531
1089;2,34789530870377;-0,370678728067097
1090;2,46069790844419;-0,391058300111304
1091;2,62368280056259;-0,418911328305619
1092;2,82148544521335;-0,450477814280052
1093;3,03984001855655;-0,482850728054035
1094;3,28109642137145;-0,516018993157843
1095;3,54034436503878;-0,549045507382372
1096;3,8122238473158;-0,581178393750081
1097;4,05977018054436;-0,608501449304677
1098;4,25672198661102;-0,629075286629217
1099;4,42583352294371;-0,645995073977441
1100;4,54748056047347;-0,65777085122158
1101;4,6140923321402;-0,664086280895473
1102;4,61197124074211;-0,66388659046439
1103;4,55376965901142;-0,658371059140283
1104;4,44659936464628;-0,648028001596114
1105;4,27797139678922;-0,631237876481855
1106;4,05726000080202;-0,608232839426168
1107;3,83653055008932;-0,583938660814449
1108;3,57413996924429;-0,553171556194287
1109;3,2759098435856;-0,515331941021207
1110;3,0033127692502;-0,477600562597334
1111;2,74232217221647;-0,438118475032869
1112;2,52310815121601;-0,401935866637137
1113;2,312118822643;-0,364010149252021
1114;2,12516074836976;-0,327391785910839
1115;1,97515094845794;-0,295600291647164
1116;1,87515043690382;-0,273036115421805
1117;1,82010776029729;-0,260097101346095
1118;1,80189887364151;-0,255730413806281
1119;1,83191968994601;-0,262906430588494
1120;1,90531073690258;-0,27996581482367
1121;2,01449132645824;-0,304165401841332
1122;2,15903425048268;-0,334259531948703
1123;2,29525880943491;-0,36083166293307
1124;2,43305009405203;-0,386151050709038
1125;2,58051787385322;-0,411706871539643
1126;2,69279714595397;-0,430203638331281
1127;2,75686687703504;-0,44041579549825
1128;2,79060412900022;-0,44569823248123
1129;2,78350409479119;-0,444591864530657
1130;2,74066658878165;-0,437856205382768
1131;2,67117808518771;-0,426702843033027
1132;2,59172609011927;-0,413589100657039
1133;2,51656720395612;-0,400808532554575
1134;2,44709762556148;-0,388651295627598
1135;2,41134713159592;-0,382259734842304
1136;2,39662131107302;-0,379599416802122
1137;2,40704126184311;-0,381483535076519
1138;2,43685523501131;-0,386829730045133
1139;2,48965627076653;-0,396139391266865
1140;2,56506108109544;-0,409097711306258
1141;2,65974768870819;-0,424840440165277
1142;2,74271886183859;-0,438181293200735
1143;2,8281509891269;-0,45150259182719
1144;2,92096702052008;-0,465526653554514
1145;2,99066814736181;-0,475768225212747
1146;3,05454404852139;-0,484946392323436
1147;3,110386741095;-0,492814391946813
1148;3,17095588182666;-0,501190199639033
1149;3,25933315764993;-0,51312875479897
1150;3,36717639668326;-0,52726586842239
1151;3,50039329781914;-0,544116843629261
1152;3,70910756960418;-0,569269428693421
1153;3,9386396497817;-0,595346248575014
1154;4,20122976586248;-0,623376433815426
1155;4,53076578010103;-0,656171611718169
1156;4,86864546581388;-0,687408150424583
1157;5,2118474727932;-0,71699169739098
1158;5,56376106609299;-0,745368471085383
1159;5,86682952435077;-0,768403468869236
1160;6,13891805131033;-0,788091836002668
1161;6,38150614837108;-0,804923192001636
1162;6,5533330588964;-0,816462240589305
1163;6,67494839669961;-0,824447912566166
1164;6,76423305663417;-0,830218562477822
1165;6,80174059459124;-0,83262006474962
1166;6,78861751832809;-0,831781340511348
1167;6,75414705835493;-0,82957051231609
1168;6,70911391471688;-0,826665165867962
1169;6,62140327421016;-0,820950039237706
1170;6,53057126133069;-0,814951172820595
1171;6,39975717369073;-0,806163495839066
1172;6,27171163605166;-0,797386081922786
1173;6,08981369562811;-0,784604006557621
1174;5,93736842733287;-0,773593998731209
1175;5,71612781763189;-0,757101931433065
1176;5,50860584222069;-0,741041698372113
1177;5,2799129571281;-0,722626762959844
1178;5,05509991594584;-0,703729744005179
1179;4,7996802562507;-0,681212306631586
1180;4,53217589367427;-0,656306756480366
1181;4,27119618469643;-0,630549519910626
1182;3,96504040953936;-0,598247617769772
1183;3,72145700101707;-0,570713005370374
1184;3,43875939979385;-0,536401790536386
1185;3,20475925192409;-0,505795409989622
1186;2,95245570788555;-0,470183391140698
1187;2,71745870227161;-0,434162952753976
1188;2,5212170052839;-0,401610227723788
1189;2,33833442792825;-0,368906623941831
1190;2,15966968237336;-0,334387331663631
1191;2,01308608069904;-0,303862345963314
1192;1,89909934180879;-0,278547683257786
1193;1,77142517656203;-0,248322812840516
1194;1,67931733902979;-0,225132772116004
1195;1,57854890607367;-0,198258041602899
1196;1,5063599372347;-0,177928756776753
1197;1,43419179669503;-0,156607234090765
1198;1,36951518317968;-0,136566851438173
1199;1,32027623792077;-0,120664807003917
1200;1,2829028361177;-0,108193765232402
1201;1,24434327205021;-0,0949402039818825
1202;1,21076726606628;-0,0830606709903867
1203;1,17869890942153;-0,0714028817053613
1204;1,1481560961106;-0,0600009360332146
1205;1,1199348195562;-0,0491927473748183
1206;1,08919342341072;-0,0371050103900578
1207;1,06232660704468;-0,0262580589586867
1208;1,02803260105556;-0,0120068872604587
1209;0,996725207578485;0,00142455811930965
1210;0,955540793642577;0,0197507674517836
1211;0,912518568322519;0,0397582895696122
1212;0,869231018127915;0,0608647844667499
1213;0,813237549288223;0,0897825770677048
1214;0,763078083535117;0,117431019694726
1215;0,699458147179422;0,155238266865966
1216;0,643960335950157;0,191140881721664
1217;0,58889403965453;0,229962841262344
1218;0,519866270320998;0,284108359309387
1219;0,462379227284518;0,335001685137599
1220;0,396999131297633;0,401210443546853
1221;0,343963524899301;0,463487609099531
1222;0,294095100734825;0,531512210248297
1223;0,23903363670376;0,621540981031141
1224;0,199681722826617;0,699661684948064
1225;0,160523394620194;0,794461664729192
1226;0,127646843371842;0,893989920563149
1227;0,104340631696049;0,981546538312535
1228;0,0827959023562849;1,081991156308
1229;0,0691852714317345;1,15998635087188
1230;0,0589081980368205;1,22982426184446
1231;0,0503931166327818;1,29762878126394
1232;0,0460444871385742;1,33682236000826
1233;0,0432262191394642;1,36425274916855
1234;0,0425989233412403;1,37060137725567
1235;0,0431345231074674;1,36517499913161
1236;0,0451608261457124;1,34523812194542
1237;0,0485242296509228;1,31404135055081
1238;0,0524226995511632;1,28048061845263
1239;0,0572137995433561;1,24249920997039
1240;0,0621736091811929;1,20639392108318
1241;0,0669615230662987;1,17417467670287
1242;0,0720273326462432;1,14250266794533
1243;0,0762100168684486;1,11798794224589
1244;0,0788106078552278;1,10341532282858
1245;0,0810790746694583;1,09109121642009
1246;0,0818971137759562;1,08673140340763
1247;0,0815002411749049;1,08884110609714
1248;0,0798855226526062;1,09753191908119
1249;0,0768680881004579;1,11425392077472
1250;0,0728447702829786;1,13760162191419
1251;0,0672917036492532;1,1720384763622
1252;0,0604951827935276;1,2182792066613
1253;0,0542512414411072;1,26559031932545
1254;0,0471954703573184;1,32609968130703
1255;0,0405028730363736;1,39251416938808
1256;0,0337632543297857;1,47155569980253
1257;0,0278454861080403;1,55524519608283
1258;0,0234232892725589;1,63035211811866
1259;0,0193640155914295;1,71300457634776
1260;0,0162467249319626;1,78923417236678
1261;0,0134471260407896;1,87137052443446
1262;0,0112174751931009;1,95010488221488
1263;0,00955842288293939;2,01961375937032
1264;0,00807053487981818;2,09309768118182
1265;0,00688531855703931;2,16207596181753
1266;0,00580467165473147;2,2362223413985
1267;0,00490636387022392;2,3092402463925
1268;0,00420977070682664;2,37574155819564
1269;0,00364953778755385;2,43776213527664
1270;0,00312833400786679;2,50468688411942
1271;0,00271870382215593;2,56563810223579
1272;0,00243391948332103;2,61369379279772
1273;0,00219298139866096;2,65896505208589
1274;0,00197930767804824;2,70348669063829
1275;0,00182116736899175;2,73965013982321
1276;0,00170539650079795;2,76817463245492
1277;0,00161165211017951;2,7927286988429
1278;0,00155824197603588;2,80736510077308
1279;0,00152102978821439;2,81786228053579
1280;0,00151571541336577;2,81938233300939
1281;0,00154184533912003;2,81195918772178
1282;0,00159366017719;2,79760427949259
1283;0,00165147074068876;2,78212911635342
1284;0,00171638990264606;2,76538404904382
1285;0,00177481723177933;2,7508463633506
1286;0,00180142431922375;2,74438397857828
1287;0,0017747469162243;2,75086356977723
1288;0,00168333648126503;2,7738290644457
1289;0,00152040454700694;2,81804084024161
1290;0,00128041072270813;2,89265069754456
1291;0,00105102294896798;2,97838780109702
1292;0,000828577747217199;3,08166673455517
1293;0,000631588410237132;3,19956584797382
1294;0,000455106251806216;3,34188719853823
1295;0,000329467928231083;3,48218685503105
1296;0,000247251418158742;3,60686120874292
1297;0,000192782821429257;3,71493166799994
1298;0,000157045730416279;3,80397386621776
1299;0,000136428338449603;3,8650954100755
1300;0,000131012757247403;3,88268641325724
1301;0,000134185526984755;3,87229432388103
1302;0,00014817074235672;3,82923754323555
1303;0,000181999602848014;3,7399295597133
1304;0,000228651275871155;3,64082637091896
1305;0,000300272602643074;3,52248429172288
1306;0,000402598885302965;3,39512743190003
1307;0,000558767876537617;3,25276856935003
1308;0,000824273578694866;3,08392862082951
1309;0,00113443160855174;2,94522168128975
1310;0,00155203665049459;2,80909802733065
1311;0,00206874757069956;2,68429249886565
1312;0,00280667722045767;2,55180753016375
1313;0,00369060437956539;2,43290250722385
1314;0,00461128056338988;2,33617845326851
1315;0,005627413317488;2,24969118598121
1316;0,00683496670917178;2,16526359639363
1317;0,00846852515030356;2,07219221834189
1318;0,0100230716974494;1,99899916301792
1319;0,0119853880725126;1,92134789946744
1320;0,014339987671238;1,84345122205145
1321;0,0175391961830904;1,75599031411979
1322;0,0221934833918596;1,65377452746001
1323;0,0286631423247147;1,54267619986066
1324;0,0366607564586377;1,43579857804203
1325;0,0469696598723638;1,32818258471968
1326;0,060517373003145;1,21811993251601
1327;0,0779142561249982;1,10838307133946
1328;0,104096830541357;0,982562493345892
1329;0,130172537195503;0,885480630226273
1330;0,160153358891687;0,795463948459245
1331;0,194991449880931;0,709984431462821
1332;0,233124292609095;0,632412468665714
1333;0,279441817363321;0,55370860290614
1334;0,329637769798304;0,481963032790418
1335;0,379038714789394;0,421316429185738
1336;0,430762959031122;0,365761648410289
1337;0,484106726707605;0,315058882755314
1338;0,541497617007078;0,266403450253718
1339;0,611681093890853;0,213474942660228
1340;0,667845678066017;0,175323880199906
1341;0,72177811938071;0,141596287663395
1342;0,777095201904459;0,1095257725388
1343;0,827084836611236;0,0824499412546428
1344;0,882686186949074;0,0541936695820663
1345;0,92950488090012;0,0317483253730686
1346;0,97044192101591;0,0130304511432887
1347;1,00791815354611;-0,0034252673213541
1348;1,04618773044143;-0,0196096223700359
1349;1,08278508039775;-0,0345422630334789
1350;1,12345959781183;-0,0505574588086588
1351;1,16066491328016;-0,0647068559846879
1352;1,19295579119147;-0,0766243497915951
1353;1,22386313570106;-0,0877328534850143
1354;1,25652265182267;-0,0991703221947459
1355;1,29275318962611;-0,111515617985634
1356;1,33467391741974;-0,125375173443384
1357;1,38114080493311;-0,140237956412273
1358;1,42940948793009;-0,155156660472584
1359;1,48018921604405;-0,170317235821479
1360;1,53824730659254;-0,187026163329042
1361;1,60533938892417;-0,205566861759792
1362;1,68010406179428;-0,22533618176361
1363;1,75968231770726;-0,245434270018748
1364;1,85786737748264;-0,269014708966996
1365;1,95488487655941;-0,291121186822866
1366;2,05956413991181;-0,313775321505361
1367;2,16760032444029;-0,335979207344329
1368;2,28141162446616;-0,358203650075562
1369;2,4067727544704;-0,381435086478362
1370;2,52198824192815;-0,401743057464015
1371;2,62386088943378;-0,418940806102715
1372;2,71932367020298;-0,434460902996528
1373;2,80346919765109;-0,44769578876922
1374;2,87282217306831;-0,458308744110515
1375;2,94681809577272;-0,469353328099538
1376;3,00364332519218;-0,477648360057296
1377;3,05942762939022;-0,485640184439609
1378;3,09932810544822;-0,491267554568714
1379;3,14508900085634;-0,497632939776164
1380;3,18149145993322;-0,502630761798597
1381;3,21114408930509;-0,506659793509856
1382;3,24816255366122;-0,511637755295605
1383;3,2799487711682;-0,515867060610242
1384;3,31214090100942;-0,520108803725548
1385;3,33700916639302;-0,523357399615068
1386;3,36581424937724;-0,527090144706818
1387;3,38302392925783;-0,529305069708724
1388;3,40522108978694;-0,53214531447416
1389;3,44035422119165;-0,536603160126498
1390;3,46798277167787;-0,540076931311723
1391;3,50420651720373;-0,54458969299806
1392;3,55682123753391;-0,551062038505009
1393;3,61916669678837;-0,558608586929162
1394;3,69935956959117;-0,568126545832805
1395;3,79496924683626;-0,579208260868277
1396;3,90413894320226;-0,591525265242676
1397;4,04526008348572;-0,606946449110601
1398;4,19576386808154;-0,62281103870292
1399;4,3515572853312;-0,638644705091363
1400;4,50694998657221;-0,653882738750759
1401;4,6914826981119;-0,67131011901445
1402;4,8496044130668;-0,685706314225148
1403;4,99317469003993;-0,698376760445905
1404;5,13242419273645;-0,710322543445575
1405;5,28351035372324;-0,72292256281656
1406;5,42110718617172;-0,734087994239221
1407;5,5579260741261;-0,744912765936743
1408;5,69803603457489;-0,755725191405309
1409;5,83026136078064;-0,765688023884332
1410;5,95172649053141;-0,774642965148332
1411;6,11075535444125;-0,786094896983941
1412;6,23594409316507;-0,794902212973066
1413;6,35382639569191;-0,803035344513314
1414;6,46698332704364;-0,810701741265305
1415;6,58735328635854;-0,818710955714424
1416;6,6960610969423;-0,825819407641095
1417;6,78255719913828;-0,831393464971839
1418;6,85327474013562;-0,835898142547463
1419;6,90112359988312;-0,838919805737618
1420;6,95527255562763;-0,842314153319553
1421;6,98894467569103;-0,844411602623317
1422;6,99532844825034;-0,844808110523905
1423;6,97546072045749;-0,843572897500395
1424;6,95302627998946;-0,842173870868837
1425;6,9030621312923;-0,839041782291097
1426;6,85536182651534;-0,836030381826047
1427;6,80640804827639;-0,83291798175695
1428;6,76930445976368;-0,830544047591389
1429;6,71783816943176;-0,827229537616791
1430;6,662570801462;-0,823641837197237
1431;6,59618916860333;-0,8192931020517
1432;6,51330127428354;-0,813801167032178
1433;6,43781343243308;-0,808738386695842
1434;6,38727913648117;-0,805315896083536
1435;6,33036018606893;-0,801428421292538
1436;6,27564052873443;-0,797658059061145
1437;6,19430969092371;-0,791992914565658
1438;6,12712917900199;-0,787257036711314
1439;6,02595340781272;-0,780025769420302
1440;5,91738222755928;-0,772129623013438
1441;5,80210029882067;-0,763585232024015
1442;5,69128553217356;-0,755210374737943
1443;5,55193703816276;-0,744444532350702
1444;5,41594471999662;-0,733674222899586
1445;5,24966937047174;-0,720131951958086
1446;5,05485168227614;-0,703708417194274
1447;4,8174738482689;-0,682819365759595
1448;4,54925719930392;-0,657940491035453
1449;4,21795549755236;-0,625101993310201
1450;3,86848980658103;-0,587541456834968
1451;3,50977473047875;-0,545279242833461
1452;3,13960401514862;-0,49687487581825
1453;2,77928634772651;-0,443933294107703
1454;2,43837280590379;-0,387100106191748
1455;2,12320354360114;-0,326991630353224
1456;1,85301616585009;-0,267879208152608
1457;1,60733136612084;-0,206105419789179
1458;1,40540306504319;-0,147800896354959
1459;1,23754618436578;-0,0925614154770691
1460;1,09679951397759;-0,0401272493335184
1461;0,963724103489108;0,0160472788376264
1462;0,86207283245757;0,0644560411379056
1463;0,769302101884216;0,113903080982934
1464;0,686164102384763;0,163572006396449
1465;0,605074301285969;0,218191292029898
1466;0,521880851902967;0,282428637356911
1467;0,453780550622279;0,343154122242258
1468;0,392279518456303;0,406404366490948
1469;0,343133493244753;0,464536888410045
1470;0,302044523289913;0,519929034546445
1471;0,269123015557468;0,570049159530254
1472;0,245897547389468;0,609245802942992
1473;0,231295808522433;0,635832237320483
1474;0,223768460387388;0,650201126230308
1475;0,224012395992797;0,649727948798359
1476;0,232318799960252;0,63391564431672
1477;0,249945093349948;0,602155384424326
1478;0,278547844189032;0,555100198397971
1479;0,321671370070339;0,492587591176925
1480;0,384439138268507;0,415172404903629
1481;0,469914015907414;0,327981601283772
1482;0,581698378239593;0,235302147002006
1483;0,725845679260139;0,139155704051737
1484;0,889855381224031;0,0506805689054197
1485;1,07759065462695;-0,0324538163252252
1486;1,26465215187315;-0,101971087333056
1487;1,42917060951389;-0,155084076480037
1488;1,55445812156892;-0,191579026272088
1489;1,6306055074554;-0,212348904842819
1490;1,65819616244144;-0,219635905723668
1491;1,6497369461566;-0,217414700613742
1492;1,61599203713578;-0,208439216440726
1493;1,57482012195248;-0,197230955265447
1494;1,53406719296695;-0,185844382361121
1495;1,50062806151645;-0,17627306343082
1496;1,47777957279665;-0,169609659053841
1497;1,46752663871524;-0,166585993355448
1498;1,46224613784548;-0,165020482957493
1499;1,46440565370983;-0,165661396916842
1500;1,47416288794903;-0,168545473637685
1501;1,48755150706697;-0,172472012281386
1502;1,49923601697531;-0,175870006965356
1503;1,51696485661757;-0,180975519643778
1504;1,53802588622928;-0,186963645057041
1505;1,55623976299446;-0,192076507643256
1506;1,57197249051358;-0,196444941625344
1507;1,57279777192235;-0,196672885252483
1508;1,5452726719411;-0,189005124195059
1509;1,48507416862709;-0,171748144037816
1510;1,39351451890004;-0,144111497947295
1511;1,27837489055655;-0,106658231776059
1512;1,14794738829197;-0,0599219843179928
1513;1,01428937870865;-0,00616187772601708
1514;0,892984863554432;0,049155902511788
1515;0,78292194820858;0,106281531878109
1516;0,68514753033153;0,164215903383124
1517;0,611855852859123;0,213350881255625
1518;0,548651845063899;0,260703155970823
1519;0,492039615075713;0,30799992992334
1520;0,438680142647354;0,357852023980883
1521;0,382378895191964;0,417506085942513
1522;0,330377609572943;0,480989393459466
1523;0,276997857266191;0,557523590433995
1524;0,226600592602143;0,644738958711351
1525;0,179973084927345;0,744792439016382
1526;0,139905438365382;0,854165403405451
1527;0,106011536791002;0,974646869716055
1528;0,0778914809860721;1,10851003864393
1529;0,0590765889794313;1,22858458834615
1530;0,0453773364600168;1,34316099973945
1531;0,0361336017117269;1,44208874683032
1532;0,0301944557638475;1,52007279387113
1533;0,0267366957981092;1,57289226518605
1534;0,0262909092586228;1,5801943937653
1535;0,0281745819455152;1,55014251929615
1536;0,0329532958932243;1,48210114202122
1537;0,0425195503773991;1,37141133656753
1538;0,0557680955677586;1,25361418603624
1539;0,074023879656693;1,13062815688832
1540;0,0973483701184212;1,01167131537663
1541;0,125178513928823;0,90247020852919
1542;0,158903435523139;0,798866713160069
1543;0,188010425040428;0,72581806875757
1544;0,213710211154712;0,670174726585584
1545;0,238003444218992;0,623416758092734
1546;0,257028998328192;0,590017876266111
1547;0,272750501197181;0,5642344426939
1548;0,286367411293611;0,543076406408316
1549;0,299074834066856;0,524220129548812
1550;0,311977933052383;0,505876123585751
1551;0,323899277440625;0,489590020819398
1552;0,340686951768304;0,467644499492119
1553;0,360585110892998;0,442992209922298
1554;0,389537570032286;0,40945064923445
1555;0,429148963162882;0,367391932406638
1556;0,48524932828634;0,314035057117833
1557;0,564036528827339;0,248692768792505
1558;0,655571647208103;0,183379837480025
1559;0,770776085700815;0,11307176834104
1560;0,882363680894471;0,0543523762611295
1561;0,992873725282935;0,00310598201822196
1562;1,09584365871376;-0,0397485988553677
1563;1,18275866433545;-0,0728961381700165
1564;1,25184091247126;-0,0975491409943667
1565;1,29147427190652;-0,111085758801768
1566;1,31016486526753;-0,117325948763278
1567;1,31111329613224;-0,11764022163599
1568;1,30201948668311;-0,114617484151998
1569;1,28585562260921;-0,109192208227281
1570;1,26185064630781;-0,1010079544938
1571;1,23220734272725;-0,0906837924272209
1572;1,20733170785859;-0,0818266065522573
1573;1,18586591008235;-0,0740355846407414
1574;1,17699847900748;-0,0707759016207611
1575;1,17867258429257;-0,071393182039212
1576;1,20338787048432;-0,0804056297181473
1577;1,24492323935445;-0,0951425741204919
1578;1,31067923248094;-0,117496418151759
1579;1,39908352766673;-0,145843643385228
1580;1,52229135891939;-0,182497782172422
1581;1,70125790058856;-0,230770155066085
1582;1,86959095650865;-0,271746598641825
1583;2,05686491116411;-0,313205769447504
1584;2,24920508719468;-0,352029057114655
1585;2,46156919239653;-0,391212047890071
1586;2,70215554668195;-0,431710345101001
1587;2,88302134664281;-0,459847858029852
1588;3,05364730077751;-0,484818874183498
1589;3,20862551672236;-0,506319032922423
1590;3,35593173561998;-0,525813118084828
1591;3,47948582782469;-0,541515071924562
1592;3,56327580181992;-0,551849438565679
1593;3,62591981077786;-0,559418195203015
1594;3,67363537059569;-0,565096047887898
1595;3,71240376010201;-0,569655203874522
1596;3,72442202768576;-0,57105888657097
1597;3,73091906532108;-0,571815828010088
1598;3,73354356938852;-0,572121223786574
1599;3,73070175926034;-0,571790531944981
1600;3,72752724035519;-0,571420825912481
1601;3,72788566267881;-0,571462583717041
1602;3,72294172323986;-0,570886238078871
1603;3,71930758018556;-0,570462095232796
1604;3,71459125256033;-0,569911031683671
1605;3,69750698781186;-0,567909003430327
1606;3,6766645924463;-0,565454012709818
1607;3,64830686696498;-0,562091360638991
1608;3,61011846845054;-0,557521453803207
1609;3,57263118399044;-0,552988184681247
1610;3,53787230592841;-0,548742153663736
1611;3,49491844371766;-0,54343704564489
1612;3,46476688982137;-0,539674020514969
1613;3,4389699367839;-0,536428379268967
1614;3,4219161875661;-0,534269368231583
1615;3,39901610499868;-0,531353222334012
1616;3,38077914344853;-0,52901680048641
1617;3,3674058017479;-0,527295455812014
1618;3,34998525103094;-0,525042894974166
1619;3,33063644758759;-0,522527230282477
1620;3,30481877936619;-0,51914764981891
1621;3,27514033091835;-0,515229913072168
1622;3,23412778141509;-0,509757175022189
1623;3,19079023199932;-0,503898253870827
1624;3,13706267350615;-0,496523195295127
1625;3,08036989657694;-0,488602870525326
1626;3,02527295840539;-0,480764565428552
1627;2,95655380343089;-0,470785786707535
1628;2,88509793604967;-0,460160560078939
1629;2,8298062563629;-0,45175670242435
1630;2,76640754093591;-0,441916159772527
1631;2,69692648124862;-0,430869107660445
1632;2,63862224560213;-0,421377219551837
1633;2,57449873150414;-0,410692682179611
1634;2,50785599738149;-0,399302595421003
1635;2,45002024513363;-0,389169673063918
1636;2,38313052221152;-0,377147828969998
1637;2,33056746511145;-0,367461679378253
1638;2,27655017529805;-0,35727722662529
1639;2,22007833327849;-0,346368298374248
1640;2,17599264554709;-0,337657423193553
1641;2,13803377418837;-0,33001456140961
1642;2,11340300312828;-0,324982320216694
1643;2,10110133836184;-0,322446999397859
1644;2,09199814393584;-0,320561294880332
1645;2,09334701551968;-0,320841227590119
1646;2,10092903769606;-0,322411383649412
1647;2,1038579546591;-0,323016414383689
1648;2,11141632208519;-0,324573874500323
1649;2,11905001760219;-0,326141207825596
1650;2,11410868410645;-0,325127310168383
1651;2,10255341712557;-0,322747038224137
1652;2,0845106998213;-0,319004128707421
1653;2,04571845900103;-0,310845863923704
1654;2,00049460371636;-0,301137384218207
1655;1,94665576675477;-0,289289160653948
1656;1,85859837734254;-0,269185553651417
1657;1,77197522144675;-0,248457644602845
1658;1,65300179044894;-0,218273323977783
1659;1,53306566683379;-0,185560757680709
1660;1,38704758525492;-0,142091360611234
1661;1,23692175875445;-0,092342229284846
1662;1,07690163468178;-0,0321760361987467
1663;0,921573019729992;0,0354702482805681
1664;0,792382673582017;0,101065029410611
1665;0,652512110585966;0,185411423435124
1666;0,554466308368828;0,256124838214637
1667;0,462990879497462;0,334427564107183
1668;0,401601181859512;0,396205017789558
1669;0,352904642460403;0,45234262845875
1670;0,315797964169621;0,500590674051441
1671;0,289501223677327;0,538349596236415
1672;0,269546108010162;0,569366934589985
1673;0,253381582891579;0,596224955116499
1674;0,237586679447638;0,624177912194868
1675;0,2203592990281;0,656868617804944
1676;0,201374332392132;0,695995886368597
1677;0,179176851320543;0,74671809954634
1678;0,157115954985379;0,803779710502535
1679;0,135182659666244;0,869079013233476
1680;0,115762476466024;0,936432191080237
1681;0,0995797844101516;1,00182881830542
1682;0,0858672561795605;1,06617241441716
1683;0,0774313069556964;1,11108341025918
1684;0,0715342201644722;1,14548615297767
1685;0,069283498446235;1,15937019088773
1686;0,0697781908383282;1,15628029483512
1687;0,0729472765229239;1,13699091779582
1688;0,0790341646616397;1,10218513255003
1689;0,0872045516958807;1,05946084620489
1690;0,0971984240558262;1,01234077652853
1691;0,110504804277398;0,956618840297354
1692;0,123129021072972;0,909639573336669
1693;0,140220440646785;0,853188672439031
1694;0,155981021537088;0,806928239742465
1695;0,17776278106683;0,750159163890774
1696;0,20489664956551;0,688465143048817
1697;0,231598749024378;0,635263790770495
1698;0,271636428500534;0,5660119883095
1699;0,315957962840922;0,500370694978598
1700;0,371069372552056;0,430544890115126
1701;0,439760464248965;0,35678381756348
1702;0,515989440194841;0,287359186186814
1703;0,601287094100066;0,220918117660033
1704;0,706760915632209;0,150727475286654
1705;0,812885367580709;0,0899706939351393
1706;0,924560508224904;0,0340646610020855
1707;1,05162095879988;-0,0218592330071964
1708;1,17358988231553;-0,0695163567371717
1709;1,29858469387171;-0,113470279634664
1710;1,43249149456346;-0,156092052018052
1711;1,55623291890451;-0,192074597682397
1712;1,68701824394547;-0,227119779211533
1713;1,80882222676282;-0,257395885969953
1714;1,91744714747853;-0,282723401891019
1715;2,03438152271697;-0,30843240270319
1716;2,13912794001373;-0,330236760251907
1717;2,23315775154667;-0,348919402966807
1718;2,3069077933263;-0,363030236198655
1719;2,38550736993393;-0,377580762633236
1720;2,45879954013575;-0,390723123223619
1721;2,52777056195082;-0,402737651809422
1722;2,579826246501;-0,411590456844267
1723;2,63504547717979;-0,42078811492534
1724;2,68897662741088;-0,429587027351381
1725;2,73383325330529;-0,436772021798065
1726;2,77588177881561;-0,443400966141132
1727;2,80714899280784;-0,448265463947964
1728;2,83519155688906;-0,452582406893627
1729;2,86648699455722;-0,457349975692118
1730;2,88908681875778;-0,460760592844854
1731;2,91186571160664;-0,464171342463457
1732;2,93222535689971;-0,467197345060819
1733;2,95025790443999;-0,469859982615225
1734;2,96905684615641;-0,472618512764689
1735;2,98638522940126;-0,475145828912157
1736;3,00505231292812;-0,47785203674417
1737;3,02212408595842;-0,480312292147504
1738;3,03704616428468;-0,482451393413728
1739;3,05185978232453;-0,484564576084407
1740;3,0676003540562;-0,486798779222984
1741;3,07697869177672;-0,488124488748001
1742;3,09070615634815;-0,490057717213832
1743;3,09972886990229;-0,491323708203657
1744;3,09505245129056;-0,49066801332804
1745;3,09711154613315;-0,490956847267575
1746;3,08955617157225;-0,489896095579761
1747;3,07671856597387;-0,488087772219347
1748;3,05651900992814;-0,485227101215679
1749;3,03445150736231;-0,482080201555192
1750;3,0039163978253;-0,477687841624944
1751;2,97373284056136;-0,473301949027327
1752;2,94221040157425;-0,468673726506869
1753;2,91052035967021;-0,463970641608015
1754;2,88516228455963;-0,460170246367503
1755;2,86192957524038;-0,456658942679943
1756;2,84525530287556;-0,454121241436004
1757;2,8339105009988;-0,452386130478796
1758;2,83612354033824;-0,452725144606454
1759;2,85007240595335;-0,454855893379233
1760;2,86946635954735;-0,45780113762154
1761;2,90408731446161;-0,463009669748031
1762;2,94708742122503;-0,469393018779181
1763;2,98625567124614;-0,475126987534348
1764;3,02174079434611;-0,480257207715371
1765;3,06742360196166;-0,486773754884074
1766;3,10776214627391;-0,492447772511876
1767;3,14432211503738;-0,497527030248249
1768;3,17635914508097;-0,501929601408915
1769;3,20826271842335;-0,506269924602722
1770;3,22928202572184;-0,5091059752947
1771;3,24888561155595;-0,511734420749543
1772;3,26358078092966;-0,513694366925607
1773;3,26656787626416;-0,514091686857903
1774;3,26651963110215;-0,514085272552991
1775;3,26845006040509;-0,514341853641484
1776;3,26469099049817;-0,513842080719055
1777;3,25733089703009;-0,512861878753621
1778;3,25566756049816;-0,512640052233077
1779;3,24644692356064;-0,51140830694906
1780;3,22815145322625;-0,508953902059151
1781;3,20857793057511;-0,506312591985546
1782;3,18908839886119;-0,503666557689348
1783;3,1619364934157;-0,499953143004128
1784;3,1329612726046;-0,495955026481427
1785;3,10550676933557;-0,492132480250989
1786;3,0841660195023;-0,48913774791754
1787;3,06090966274082;-0,485850512363714
1788;3,04170429763932;-0,483116991391648
1789;3,02189479989625;-0,480279341333317
1790;2,99947177966045;-0,477044780260672
1791;2,98388146119113;-0,474781566195692
1792;2,96180765762486;-0,471556851638106
1793;2,9432053263795;-0,46882056077548
1794;2,93060065258809;-0,46695664198207
1795;2,91591649611166;-0,464775082815625
1796;2,89894169837539;-0,462239481195473
1797;2,87906079973018;-0,459250836364191
1798;2,85625153514266;-0,455796450833202
1799;2,83026097106489;-0,451826482544764
1800;2,80607310081017;-0,448098980614277
1801;2,77858121993136;-0,443823096047608
1802;2,74893522034811;-0,439164505657641
1803;2,71305167558778;-0,433458065862182
1804;2,68615055690357;-0,429130350923903
1805;2,65507147727298;-0,424076217231948
1806;2,62313736079928;-0,418821033051356
1807;2,5911830820178;-0,413498099477923
1808;2,56113169696206;-0,408431911070285
1809;2,52993210918799;-0,403108867025369
1810;2,49982691235308;-0,397909939227119
1811;2,47003278228642;-0,392702717256273
1812;2,44529288828069;-0,388330884787267
1813;2,42461109280314;-0,38464208776524
1814;2,40624845655493;-0,381340468282232
1815;2,38692329721512;-0,377838463358894
1816;2,37553943422715;-0,375762244153289
1817;2,36830620070906;-0,374437852054804
1818;2,35853472738523;-0,372642275239657
1819;2,35565629277923;-0,372111924044336
1820;2,35487327851226;-0,371967541645975
1821;2,35609791055927;-0,37219333413377
1822;2,35841397441767;-0,372620039531443
1823;2,36279752004668;-0,373426506357654
1824;2,36980665588518;-0,374712914909927
1825;2,37866301796257;-0,376332920471301
1826;2,38824352728889;-0,37807860937748
1827;2,39062929812904;-0,378512237655482
1828;2,39313237892871;-0,37896672278733
1829;2,39665392112668;-0,379605326066946
1830;2,38928918261369;-0,378268716854437
1831;2,3771006550501;-0,376047571718639
1832;2,3711473741692;-0,374958547567139
1833;2,36159226331922;-0,373204917377333
1834;2,34757579526208;-0,370619623060693
1835;2,33828955764406;-0,368898290187873
1836;2,32575962669565;-0,366564827247922
1837;2,30665813030784;-0,362983232525941
1838;2,28127232579986;-0,358177132068708
1839;2,24440790284014;-0,351101789239146
1840;2,20958837665729;-0,344311376673153
1841;2,17526383821649;-0,337511940156095
1842;2,13952958399353;-0,33031829599701
1843;2,10586326781047;-0,323430169336083
1844;2,07847350742748;-0,317744493287083
1845;2,05719723552618;-0,31327593204195
1846;2,04064216563296;-0,309766856202736
1847;2,0347178356386;-0,308504191978174
1848;2,04362644219659;-0,310401513322113
1849;2,0635949186251;-0,314624449800322
1850;2,09218759491802;-0,320600622731122
1851;2,1285078615843;-0,328075258570648
1852;2,17039504520283;-0,336538789303335
1853;2,21271897300179;-0,344926259736268
1854;2,25296152788891;-0,352753775670475
1855;2,2892056349904;-0,359684806274541
1856;2,332109094158;-0,367748862503201
1857;2,36805795339382;-0,37439232665357
1858;2,39034634642843;-0,37846083209666
1859;2,41054355650419;-0,382114983227663
1860;2,41469077917833;-0,382861523702511
1861;2,40043596433348;-0,380290124923991
1862;2,36802234072252;-0,374385795351028
1863;2,31219502257081;-0,364024461951929
1864;2,23172697438439;-0,348641062679958
1865;2,11522599100497;-0,32535677426578
1866;1,96544950493037;-0,293461890683809
1867;1,80105896100263;-0,255527930486913
1868;1,6203529517639;-0,209609624609083
1869;1,44661910887107;-0,160354197538679
1870;1,28474997163097;-0,108818616767397
1871;1,12496951349138;-0,0511407532901671
1872;0,986735853039905;0,00579909142421081
1873;0,857991308624785;0,0665171114932689
1874;0,745633353613188;0,127474673392572
1875;0,64988333954891;0,18716459649149
1876;0,565715969447751;0,247401561501509
1877;0,502191827307937;0,29913035929324
1878;0,456273670064186;0,34077459209905
1879;0,426215905569452;0,370370347272798
1880;0,411788631773214;0,385325647097083
1881;0,407479385391328;0,389894357567569
1882;0,411038237209056;0,38611777560211
1883;0,421209900846057;0,375501428957889
1884;0,437195537292814;0,359324279794148
1885;0,456822613815105;0,340252405611534
1886;0,481608569090403;0,317305794433851
1887;0,512610847259986;0,290212208032165
1888;0,543587287209072;0,264730708597949
1889;0,576091380433309;0,239508622704831
1890;0,605052360354647;0,218207040505993
1891;0,622618430373728;0,205778027740975
1892;0,630140154758504;0,200562844723246
1893;0,628789600903447;0,201494649391669
1894;0,620093295035583;0,207542964580788
1895;0,609291498779581;0,215174881384597
1896;0,60419758603648;0,218821014205292
1897;0,607945664412461;0,216135234379134
1898;0,623517700629521;0,205151213113086
1899;0,65118639063771;0,18629468448972
1900;0,687441827994606;0,16276404637019

